Assignment4
…
Keliang Xu

11/30/2021

Task One

I choose The Hound of the Baskervilles by Arthur Conan Doyle. https://www.gutenberg.org/ebooks/2852

## Determining mirror for Project Gutenberg from http://www.gutenberg.org/robot/harvest

## Using mirror http://aleph.gutenberg.org

## Joining, by = "word"

## # A tibble: 5,159 x 2
##    word            n
##    <chr>       <int>
##  1 sir           351
##  2 holmes        187
##  3 moor          165
##  4 henry         147
##  5 watson        116
##  6 baskerville   113
##  7 dr            110
##  8 mortimer       87
##  9 time           86
## 10 stapleton      85
## # ... with 5,149 more rows
…
All the functions and approach to sentiment analysis detailed in Text Mining with R. https://www.tidytextmining.com/sentiment.html

Sentiment analysis with inner join

nrc_joy <- get_sentiments("nrc") %>% 
  filter(sentiment == "joy")

tidy_Holmes %>%
  inner_join(nrc_joy) %>%
  count(word, sort = TRUE)

## Joining, by = "word"

## # A tibble: 190 x 2
##    word         n
##    <chr>    <int>
##  1 friend      58
##  2 found       44
##  3 glad        18
##  4 love        16
##  5 surprise    16
##  6 green       14
##  7 save        14
##  8 god         13
##  9 true        13
## 10 hope        12
## # ... with 180 more rows
…
The three different lexicons for calculating sentiment give results that are different in an absolute sense but have similar relative trajectories through the novel. The first two plots are the same as the plot above. Actually I dont know why the third one is different from other.

Most common positive and negative words

bing_word_counts <- tidy_Holmes %>%
  inner_join(get_sentiments("bing")) %>%
  count(word, sentiment, sort = TRUE) %>%
  ungroup()

## Joining, by = "word"

bing_word_counts

## # A tibble: 1,041 x 3
##    word     sentiment     n
##    <chr>    <chr>     <int>
##  1 death    negative     65
##  2 dark     negative     42
##  3 doubt    negative     41
##  4 fear     negative     26
##  5 poor     negative     26
##  6 mire     negative     25
##  7 cry      negative     24
##  8 strange  negative     24
##  9 ready    positive     22
## 10 darkness negative     21
## # ... with 1,031 more rows
…
